<?xml version="1.0" encoding="UTF-8"?>
<svg width="52px" height="69px" viewBox="0 0 52 69" version="1.1" xmlns="http://www.w3.org/2000/svg" xmlns:xlink="http://www.w3.org/1999/xlink">
    <!-- Generator: Sketch 47.1 (45422) - http://www.bohemiancoding.com/sketch -->
    <title>Page 1</title>
    <desc>Created with Sketch.</desc>
    <defs>
        <polygon id="path-1" points="0 69 0 0 52 0 52 69"></polygon>
    </defs>
    <g id="Page-1" stroke="none" stroke-width="1" fill="none" fill-rule="evenodd">
        <g id="Coach's-Hub-Screen" transform="translate(-47.000000, -35.000000)">
            <g id="header">
                <g id="Group" transform="translate(47.000000, 35.000000)">
                    <g id="Page-1">
                        <mask id="mask-2" fill="white">
                            <use xlink:href="#path-1"></use>
                        </mask>
                        <g id="Clip-2"></g>
                        <path d="M31.8926804,45.2968126 C26.3547799,45.9327284 21.361813,41.1362885 21.361813,34.5106618 C21.361813,27.8882199 26.3547799,23.09178 31.8926804,23.7276958 C36.8460537,24.296729 40.4938786,29.1016619 40.4938786,34.5096001 C40.4938786,39.9207232 36.8460537,44.7277794 31.8926804,45.2968126 M48.26882,47.7916408 L48.26882,47.7927024 C44.3667622,48.369167 42.4131284,45.049453 43.6936702,42.1851779 L43.6196926,42.2701083 C44.6835113,39.8878127 45.2815837,37.2390483 45.2815837,34.5096001 C45.2815837,31.7790903 44.6814275,29.127141 43.6155249,26.7437839 L43.7343058,26.880734 C42.789268,24.5589513 44.3730138,20.6564031 48.2761136,21.231806 L48.2761136,21.2307444 C50.370409,21.54074 52,19.5395693 52,16.7719025 C52,14.0074205 50.370409,11.3353003 48.2761136,10.7821916 C46.0776244,10.2025421 44.2146392,12.1548779 44.2146392,15.1699043 L44.2146392,15.1709659 L44.2146392,15.1709659 C44.2146392,20.4270912 41.3816098,22.5471643 39.0966397,20.5693495 L39.159156,20.6691426 C37.1409221,18.919578 34.7215421,17.6912732 32.0187549,17.2517588 C29.1440479,16.784642 26.3203959,17.2337111 23.8009898,18.4110577 C21.1680125,19.3792634 16.2167231,16.1136925 16.2167231,9.39676569 L16.2156812,9.39676569 C16.2156812,5.48253949 12.9294087,1.44091782 8.61995311,0.303913141 C4.0083355,-0.912713715 0.0187548841,1.62776453 0.0177129461,6.06006568 C0.0187548841,10.4966134 4.0083355,14.6804933 8.61995311,15.3620591 L8.62099505,15.3620591 C15.4717374,16.3748532 18.6829904,20.771059 17.3982808,24.0079659 C15.4998698,26.8626863 14.3433186,30.4488691 14.3433186,34.5106618 C14.3433186,38.3749914 15.3967179,41.8008682 17.1325866,44.5844595 C18.3287314,47.3669892 15.681167,52.5912656 8.60744986,53.6369702 L8.60536598,53.6369702 C3.99062256,54.3174744 0.00208387601,58.5013543 0,62.9368404 C0,67.3712648 3.99062256,69.9128047 8.60536598,68.6961778 C12.9137796,67.5591731 16.201094,63.5186131 16.201094,59.6043869 L16.201094,59.6022636 C16.2031779,53.0732452 20.2896588,49.3617901 23.4477729,50.426604 C26.0557437,51.7324077 29.0065121,52.261099 32.0197968,51.7706263 C34.7090388,51.3332352 37.1169575,50.1144851 39.1289398,48.3787216 L39.0507945,48.5039939 C40.9262829,47.0039121 44.2063037,48.5963556 44.2063037,53.8524809 C44.2063037,56.8675073 46.0682469,58.8230279 48.26882,58.2412552 C50.3620735,57.6881465 51.9927064,55.0170879 51.9927064,52.2515443 C51.9927064,49.4838774 50.3620735,47.4816451 48.26882,47.7916408" id="Fill-1" fill="#F58220" mask="url(#mask-2)"></path>
                    </g>
                </g>
            </g>
        </g>
    </g>
</svg>